-------------------------------------------------------------------------------
Test set: com.epam.newsmanagement.dao.impl.AuthorDaoImplTest
-------------------------------------------------------------------------------
Tests run: 6, Failures: 0, Errors: 0, Skipped: 0, Time elapsed: 2.852 sec
